%YAML 1.1
%TAG !u! tag:unity3d.com,2011:
--- !u!74 &7400000
AnimationClip:
  m_ObjectHideFlags: 0
  m_PrefabParentObject: {fileID: 0}
  m_PrefabInternal: {fileID: 0}
  m_Name: cavaleiroRespirando
  serializedVersion: 6
  m_Legacy: 0
  m_Compressed: 0
  m_UseHighQualityCurve: 1
  m_RotationCurves: []
  m_CompressedRotationCurves: []
  m_EulerCurves: []
  m_PositionCurves: []
  m_ScaleCurves: []
  m_FloatCurves: []
  m_PPtrCurves:
  - curve:
    - time: 0
      value: {fileID: 21300000, guid: f10944fd0e3df6f49916d6088503c4e4, type: 3}
    - time: 0.083333336
      value: {fileID: 21300000, guid: ba2776d4fabff3f4eb0db6c88bdc98c0, type: 3}
    - time: 0.16666667
      value: {fileID: 21300000, guid: 6b36d15a009adf248bb6d5374f9dea7d, type: 3}
    - time: 0.25
      value: {fileID: 21300000, guid: 71228c3731606d1469861fb76782782c, type: 3}
    - time: 0.33333334
      value: {fileID: 21300000, guid: b18faa3a94a6f8f4893fa1c156592ece, type: 3}
    - time: 0.41666666
      value: {fileID: 21300000, guid: 4e181757ae224cb41b3e5e7a9f5410c5, type: 3}
    - time: 0.5
      value: {fileID: 21300000, guid: 5236713d385085c4b8ed112f045af989, type: 3}
    - time: 0.5833333
      value: {fileID: 21300000, guid: 628e804ea2d7a2543ac140ca750c2138, type: 3}
    attribute: m_Sprite
    path: 
    classID: 212
    script: {fileID: 0}
  m_SampleRate: 12
  m_WrapMode: 0
  m_Bounds:
    m_Center: {x: 0, y: 0, z: 0}
    m_Extent: {x: 0, y: 0, z: 0}
  m_ClipBindingConstant:
    genericBindings:
    - serializedVersion: 2
      path: 0
      attribute: 0
      script: {fileID: 0}
      typeID: 212
      customType: 23
      isPPtrCurve: 1
    pptrCurveMapping:
    - {fileID: 21300000, guid: f10944fd0e3df6f49916d6088503c4e4, type: 3}
    - {fileID: 21300000, guid: ba2776d4fabff3f4eb0db6c88bdc98c0, type: 3}
    - {fileID: 21300000, guid: 6b36d15a009adf248bb6d5374f9dea7d, type: 3}
    - {fileID: 21300000, guid: 71228c3731606d1469861fb76782782c, type: 3}
    - {fileID: 21300000, guid: b18faa3a94a6f8f4893fa1c156592ece, type: 3}
    - {fileID: 21300000, guid: 4e181757ae224cb41b3e5e7a9f5410c5, type: 3}
    - {fileID: 21300000, guid: 5236713d385085c4b8ed112f045af989, type: 3}
    - {fileID: 21300000, guid: 628e804ea2d7a2543ac140ca750c2138, type: 3}
  m_AnimationClipSettings:
    serializedVersion: 2
    m_AdditiveReferencePoseClip: {fileID: 0}
    m_AdditiveReferencePoseTime: 0
    m_StartTime: 0
    m_StopTime: 0.6666666
    m_OrientationOffsetY: 0
    m_Level: 0
    m_CycleOffset: 0
    m_HasAdditiveReferencePose: 0
    m_LoopTime: 1
    m_LoopBlend: 0
    m_LoopBlendOrientation: 0
    m_LoopBlendPositionY: 0
    m_LoopBlendPositionXZ: 0
    m_KeepOriginalOrientation: 0
    m_KeepOriginalPositionY: 1
    m_KeepOriginalPositionXZ: 0
    m_HeightFromFeet: 0
    m_Mirror: 0
  m_EditorCurves: []
  m_EulerEditorCurves: []
  m_HasGenericRootTransform: 0
  m_HasMotionFloatCurves: 0
  m_GenerateMotionCurves: 0
  m_Events: []
